C:\Users\prabirkumar.jena\Documents\BitBucketCode\ECommerceApplicationDemoApp\TradingSystem\onlinemoviestreamingapp\onlinemoviestreamingapp\src\main\java\com\online\moviestreaming\controller\RegistrationController.java
C:\Users\prabirkumar.jena\Documents\BitBucketCode\ECommerceApplicationDemoApp\TradingSystem\onlinemoviestreamingapp\onlinemoviestreamingapp\src\main\java\com\online\moviestreaming\entity\Movie.java
C:\Users\prabirkumar.jena\Documents\BitBucketCode\ECommerceApplicationDemoApp\TradingSystem\onlinemoviestreamingapp\onlinemoviestreamingapp\src\main\java\com\online\moviestreaming\exception\UserNotFoundException.java
C:\Users\prabirkumar.jena\Documents\BitBucketCode\ECommerceApplicationDemoApp\TradingSystem\onlinemoviestreamingapp\onlinemoviestreamingapp\src\main\java\com\online\moviestreaming\service\MovieService.java
C:\Users\prabirkumar.jena\Documents\BitBucketCode\ECommerceApplicationDemoApp\TradingSystem\onlinemoviestreamingapp\onlinemoviestreamingapp\src\main\java\com\online\moviestreaming\service\MovieServiceImpl.java
C:\Users\prabirkumar.jena\Documents\BitBucketCode\ECommerceApplicationDemoApp\TradingSystem\onlinemoviestreamingapp\onlinemoviestreamingapp\src\main\java\com\online\moviestreaming\exception\MovieNotFoundException.java
C:\Users\prabirkumar.jena\Documents\BitBucketCode\ECommerceApplicationDemoApp\TradingSystem\onlinemoviestreamingapp\onlinemoviestreamingapp\src\main\java\com\online\moviestreaming\repository\RegistrationRepository.java
C:\Users\prabirkumar.jena\Documents\BitBucketCode\ECommerceApplicationDemoApp\TradingSystem\onlinemoviestreamingapp\onlinemoviestreamingapp\src\main\java\com\online\moviestreaming\repository\MovieRepository.java
C:\Users\prabirkumar.jena\Documents\BitBucketCode\ECommerceApplicationDemoApp\TradingSystem\onlinemoviestreamingapp\onlinemoviestreamingapp\src\main\java\com\online\moviestreaming\exception\UserRegistrationFaliedException.java
C:\Users\prabirkumar.jena\Documents\BitBucketCode\ECommerceApplicationDemoApp\TradingSystem\onlinemoviestreamingapp\onlinemoviestreamingapp\src\main\java\com\online\moviestreaming\exception\ErrorResponse.java
C:\Users\prabirkumar.jena\Documents\BitBucketCode\ECommerceApplicationDemoApp\TradingSystem\onlinemoviestreamingapp\onlinemoviestreamingapp\src\main\java\com\online\moviestreaming\config\SwaggerConfiguration.java
C:\Users\prabirkumar.jena\Documents\BitBucketCode\ECommerceApplicationDemoApp\TradingSystem\onlinemoviestreamingapp\onlinemoviestreamingapp\src\main\java\com\online\moviestreaming\service\RegistrationService.java
C:\Users\prabirkumar.jena\Documents\BitBucketCode\ECommerceApplicationDemoApp\TradingSystem\onlinemoviestreamingapp\onlinemoviestreamingapp\src\main\java\com\online\moviestreaming\entity\User.java
C:\Users\prabirkumar.jena\Documents\BitBucketCode\ECommerceApplicationDemoApp\TradingSystem\onlinemoviestreamingapp\onlinemoviestreamingapp\src\main\java\com\online\moviestreaming\exception\CustomizedResponseEntityExceptionHandler.java
C:\Users\prabirkumar.jena\Documents\BitBucketCode\ECommerceApplicationDemoApp\TradingSystem\onlinemoviestreamingapp\onlinemoviestreamingapp\src\main\java\com\online\moviestreaming\constants\AppConstants.java
C:\Users\prabirkumar.jena\Documents\BitBucketCode\ECommerceApplicationDemoApp\TradingSystem\onlinemoviestreamingapp\onlinemoviestreamingapp\src\main\java\com\online\moviestreaming\dto\UserRegistrationResponseDto.java
C:\Users\prabirkumar.jena\Documents\BitBucketCode\ECommerceApplicationDemoApp\TradingSystem\onlinemoviestreamingapp\onlinemoviestreamingapp\src\main\java\com\online\moviestreaming\controller\MovieController.java
C:\Users\prabirkumar.jena\Documents\BitBucketCode\ECommerceApplicationDemoApp\TradingSystem\onlinemoviestreamingapp\onlinemoviestreamingapp\src\main\java\com\online\moviestreaming\dto\UserRegistrationRequestDto.java
C:\Users\prabirkumar.jena\Documents\BitBucketCode\ECommerceApplicationDemoApp\TradingSystem\onlinemoviestreamingapp\onlinemoviestreamingapp\src\main\java\com\online\moviestreaming\OnlineMovieStreamingApplication.java
