C:\Users\prabirkumar.jena\Documents\BitBucketCode\ECommerceApplicationDemoApp\TradingSystem\onlinemoviestreamingapp\onlinemoviestreamingapp\src\test\java\com\online\moviestreaming\service\RegistrationServiceTest.java
C:\Users\prabirkumar.jena\Documents\BitBucketCode\ECommerceApplicationDemoApp\TradingSystem\onlinemoviestreamingapp\onlinemoviestreamingapp\src\test\java\com\online\moviestreaming\controller\RegistrationControllerTest.java
C:\Users\prabirkumar.jena\Documents\BitBucketCode\ECommerceApplicationDemoApp\TradingSystem\onlinemoviestreamingapp\onlinemoviestreamingapp\src\test\java\com\online\moviestreaming\OnlineMovieStreamingApplicationTests.java
